{
  "constants": {
    "period": 10,
    "tickers": [
      "GOOG",
      "AMD",
      "AAPL"
    ],
    "total_val": 1e6,
    "start_date": "20100101",
    "end_date": "20201231"
  },
  "config": {
    "DataProviders": [
      {
        "module": "irl.data.data_provider.price.TickerPriceDataProvider",
        "kwargs": {
          "tickers": "TO_BE_FILLED_FROM_CONSTANTS"
        }
      }
    ],
    "TickerDataCombinator": {
      "module": "irl.data.data_combinator.base.TickerDataCombinator",
      "kwargs": {
      }
    },
    "GeneralDataCombinator": {
      "module": "irl.data.data_combinator.base.GeneralDataCombinator",
      "kwargs": {
      }
    },
    "DataManipulators": [
      {
        "module": "irl.data.data_manipulator.macd.MACDDataManipulator",
        "kwargs": {
        }
      },
      {
        "module": "irl.data.data_manipulator.moving_average.MovingAverageDataManipulator",
        "kwargs": {
          "periods": [
            5,
            10,
            20,
            30
          ]
        }
      }
    ],
    "DataAggregator": {
      "module": "irl.data.data_aggregator.base.BaseDataAggregator",
      "kwargs": {
        "period": "TO_BE_FILLED_FROM_CONSTANTS",
        "start_date": "TO_BE_FILLED_FROM_CONSTANTS",
        "end_date": "TO_BE_FILLED_FROM_CONSTANTS",
        "ticker_data_columns": [
          "Close",
          "SMA_5",
          "SMA_10",
          "SMA_20",
          "SMA_30"
        ],
        "general_data_columns": [],
        "checks": [
          {
            "module": "irl.data.data_aggregator.base.SameDateRangeCheck",
            "kwargs": {
            }
          },
          {
            "module": "irl.data.data_aggregator.base.NoNanCheck",
            "kwargs": {
            }
          }
        ],
        "ticker_normalising_rules": {
          "Close": [
            [
              "Close",
              "SMA_5",
              "SMA_10",
              "SMA_20",
              "SMA_30"
            ],
            "MaxAbs"
          ]
        },
        "general_normalising_rules": {
        }
      }
    },
    "Portfolio": {
      "module": "irl.portfolio.portfolio.Portfolio",
      "kwargs": {
        "period": "TO_BE_FILLED_FROM_CONSTANTS",
        "tickers": "TO_BE_FILLED_FROM_CONSTANTS",
        "total_val": "TO_BE_FILLED_FROM_CONSTANTS",
        "output_dir": "TO_BE_FILLED_FROM_TRAINER"
      }
    }
  }
}